{
    "name": "Nighday.Animation.Hybrid",
    "rootNamespace": "Nighday.Animation.Hybrid",
    "references": [
        "Unity.Animation"
    ],
    "includePlatforms": [],
    "excludePlatforms": [],
    "allowUnsafeCode": false,
    "overrideReferences": false,
    "precompiledReferences": [],
    "autoReferenced": true,
    "defineConstraints": [],
    "versionDefines": [],
    "noEngineReferences": false
}