{
    "name" : "Nighday.Addressables",
    "rootNamespace": "Nighday.Addressables",
    "references" : [
        "Unity.RenderPipelines.Universal.Editor",
        "Unity.Addressables",
        "Unity.Addressables.Editor",
        "Unity.ResourceManager",
        "Unity.Entities",
        "Unity.Entities.Hybrid",
        "Nighday.Entities.Hybrid",
        "Unity.Mathematics"
    ],
    "includePlatforms" : [
    ],
    "excludePlatforms" : [
    ],
    "allowUnsafeCode" : false,
    "overrideReferences" : false,
    "precompiledReferences" : [
    ],
    "autoReferenced" : false,
    "defineConstraints" : [
    ],
    "versionDefines" : [
    ],
    "noEngineReferences" : false
}