{
    "name": "Nighday.NetCode.Authoring",
    "rootNamespace": "Nighday.NetCode.Authoring",
    "references": [
        "Unity.NetCode",
        "Unity.Entities.Hybrid",
        "Unity.Entities"
    ],
    "includePlatforms": [],
    "excludePlatforms": [],
    "allowUnsafeCode": false,
    "overrideReferences": false,
    "precompiledReferences": [],
    "autoReferenced": false,
    "defineConstraints": [
    ],
    "versionDefines": [],
    "noEngineReferences": false
}