{
    "name" : "WebSocketSharp",
    "references" : [
    ],
    "includePlatforms" : [
    ],
    "excludePlatforms" : [
    ],
    "allowUnsafeCode" : false,
    "overrideReferences" : false,
    "precompiledReferences" : [
    ],
    "autoReferenced" : false,
    "defineConstraints" : [
    ],
    "versionDefines" : [
    ],
    "noEngineReferences" : false
}