{
  "name": "Nighday.Physics",
  "rootNamespace": "Nighday.Physics",
  "references": [
    "Unity.Burst",
    "Unity.Entities",
    "Unity.Entities.Hybrid",
    "Unity.Transforms",
    "Unity.Physics",
    "Unity.Mathematics",
    "Unity.NetCode",
    "Unity.Collections"
  ],
  "includePlatforms": [],
  "excludePlatforms": [],
  "allowUnsafeCode": false,
  "overrideReferences": false,
  "precompiledReferences": [],
  "autoReferenced": true,
  "defineConstraints": [],
  "versionDefines": [],
  "noEngineReferences": false
}