{
    "name" : "Nighday.Entities.Hybrid.Authoring",
    "rootNamespace": "Nighday.Entities",
    "references" : [
        "Unity.Addressables",
        "Unity.ResourceManager",
        "Nighday.Entities",
        "Unity.Entities",
        "Unity.Entities.Hybrid",
        "Unity.Transforms",
        "Unity.Collections",
        "Nighday.Entities.Hybrid"
    ],
    "includePlatforms" : [
    ],
    "excludePlatforms" : [
    ],
    "allowUnsafeCode" : false,
    "overrideReferences" : false,
    "precompiledReferences" : [
    ],
    "autoReferenced" : false,
    "defineConstraints" : [
    ],
    "versionDefines" : [
    ],
    "noEngineReferences" : false
}